<?xml version="1.0" encoding="UTF-8"?>

<!--
SPDX-FileCopyrightText: 2022 Romain Vigier <contact AT romainvigier.fr>

SPDX-License-Identifier: CC-BY-SA-4.0
-->

<svg width="16" height="16" version="1.1" viewBox="0 0 16 16" xmlns="http://www.w3.org/2000/svg">
 <path d="m3.0607 3.0607 9.8787 9.8787a0.62132 0.62132 112.5 0 1-0.43934 1.0607h-9a1.5 1.5 45 0 1-1.5-1.5v-9a0.62132 0.62132 157.5 0 1 1.0607-0.43934z"/>
</svg>
