<?xml version="1.0" encoding="UTF-8"?>

<!--
SPDX-FileCopyrightText: 2022 Romain Vigier <contact AT romainvigier.fr>

SPDX-License-Identifier: CC-BY-SA-4.0
-->

<svg width="16" height="16" version="1.1" viewBox="0 0 16 16" xmlns="http://www.w3.org/2000/svg">
 <path d="m12.939 3.0606-9.8787 9.8787a0.62132 0.62132 0 0 0 0.43934 1.0607h9a1.5 1.5 0 0 0 1.5-1.5v-9a0.62132 0.62132 0 0 0-1.0607-0.43934z"/>
</svg>
